Order-Id,Item-id,Product-Id,Quantity,Sales-Id,Customer-Id,Sales-Price-Per-Prod,Market-Segment
0,0,8,10,0,25,137,software
1,1,2,4,7,5,218,education
2,2,13,12,4,11,128,retail
3,3,15,19,9,28,179,retail
4,4,8,6,5,1,155,retail
5,5,15,10,8,1,197,pharmaceutical
6,6,6,4,8,24,49,pharmaceutical
7,7,16,26,3,25,158,education
8,8,12,10,2,24,94,financial
9,9,14,21,4,13,193,realestate
10,10,16,4,6,6,158,financial
11,11,17,12,4,14,199,software
12,12,4,16,4,3,182,pharmaceutical
13,13,18,29,5,10,83,software
14,14,17,11,1,23,187,pharmaceutical
15,15,2,0,0,24,207,retail
16,16,2,28,7,24,215,pharmaceutical
17,17,15,15,7,16,182,software
18,18,16,5,8,29,149,software
19,19,17,5,0,1,188,pharmaceutical
20,20,4,10,1,27,173,realestate
21,21,8,11,9,17,203,retail
22,22,5,22,1,4,120,education
23,23,7,12,4,8,137,retail
24,24,1,11,2,21,217,financial
25,25,9,14,2,9,89,software
26,26,6,7,0,24,48,pharmaceutical
27,27,6,11,7,7,50,software
28,28,3,4,4,1,217,pharmaceutical
29,29,2,7,4,26,201,retail
30,30,16,0,2,23,151,education
31,31,5,29,3,10,101,pharmaceutical
32,32,10,26,1,24,127,software
33,33,10,3,3,8,150,financial
34,34,19,6,5,0,85,education
35,35,3,18,6,14,188,software
36,36,7,19,5,4,139,financial
37,37,3,20,5,8,182,retail
38,38,15,8,1,14,208,software
39,39,8,14,0,20,169,software
40,40,7,28,8,20,151,financial
41,41,5,7,7,15,97,software
42,42,4,6,8,29,133,retail
43,43,14,27,2,4,183,retail
44,44,16,6,9,14,159,realestate
45,45,15,9,4,17,200,education
46,46,12,9,1,24,102,pharmaceutical
47,47,19,12,2,21,117,pharmaceutical
48,48,3,26,7,27,211,pharmaceutical
49,49,19,11,2,1,88,realestate
50,50,0,0,2,16,119,financial
51,51,9,24,4,27,60,retail
52,52,1,23,5,4,191,education
53,53,1,15,4,13,203,realestate
54,54,8,29,3,0,143,pharmaceutical
55,55,10,2,5,18,129,retail
56,56,0,2,2,14,121,software
57,57,9,11,0,17,89,financial
58,58,12,18,4,4,109,education
59,59,18,21,6,16,97,financial
60,60,0,18,7,14,121,retail
61,61,6,10,2,23,78,software
62,62,14,28,9,15,184,education
63,63,12,0,0,5,94,retail
64,64,3,2,2,21,192,realestate
65,65,11,11,0,9,112,software
66,66,18,29,3,26,84,realestate
67,67,0,10,9,5,123,education
68,68,14,20,5,12,181,education
69,69,7,1,7,26,135,retail
70,70,1,17,7,11,234,realestate
71,71,19,10,0,10,94,software
72,72,15,4,6,4,202,retail
73,73,9,23,6,10,91,retail
74,74,17,15,2,29,199,pharmaceutical
75,75,10,20,4,7,90,software
76,76,4,2,3,6,177,retail
77,77,8,28,0,10,132,retail
78,78,9,14,8,3,50,financial
79,79,1,11,7,11,181,software
80,80,5,7,3,19,126,financial
81,81,14,7,2,12,188,pharmaceutical
82,82,18,28,1,13,84,education
83,83,8,10,1,26,192,realestate
84,84,19,27,1,15,115,software
85,85,15,6,7,15,201,realestate
86,86,19,12,0,4,110,pharmaceutical
87,87,15,15,4,13,183,software
88,88,9,19,3,8,68,realestate
89,89,6,9,7,20,84,financial
90,90,6,1,0,5,38,realestate
91,91,2,10,9,12,205,financial
92,92,8,0,1,26,196,retail
93,93,9,0,7,20,73,financial
94,94,3,26,6,8,203,realestate
95,95,17,0,2,16,190,pharmaceutical
96,96,19,27,8,17,113,retail
97,97,17,20,9,1,189,financial
98,98,13,19,6,18,128,retail
99,99,2,16,6,25,216,education
100,100,4,11,8,28,192,realestate
101,101,9,0,4,14,44,financial
102,102,12,10,4,29,107,realestate
103,103,10,23,8,28,153,realestate
104,104,6,18,8,24,84,realestate
105,105,3,3,6,16,214,financial
106,106,12,2,0,17,79,education
107,107,11,29,4,25,108,retail
108,108,1,4,4,0,226,retail
109,109,1,22,2,12,215,education
110,110,12,27,8,3,84,education
111,111,7,14,6,9,123,software
112,112,9,25,2,8,43,software
113,113,7,7,1,11,128,software
114,114,11,18,4,17,99,pharmaceutical
115,115,14,27,1,19,193,retail
116,116,14,27,9,13,185,education
117,117,10,23,5,27,155,software
118,118,16,26,2,12,159,education
119,119,9,28,4,0,105,financial
120,120,16,1,3,8,151,pharmaceutical
121,121,18,17,1,6,82,pharmaceutical
122,122,15,0,3,26,185,realestate
123,123,10,8,8,22,124,pharmaceutical
124,124,3,3,4,27,203,realestate
125,125,5,28,0,24,139,retail
126,126,5,1,9,1,98,education
127,127,13,25,0,2,94,realestate
128,128,6,3,7,7,69,financial
129,129,7,2,4,21,138,financial
130,130,12,26,5,9,100,realestate
131,131,5,20,5,29,132,software
132,132,18,1,2,26,86,education
133,133,2,14,1,5,212,software
134,134,13,9,0,28,112,realestate
135,135,4,13,5,10,170,software
136,136,6,21,7,27,80,software
137,137,2,3,5,14,212,software
138,138,4,20,8,16,184,realestate
139,139,14,18,7,25,191,financial
140,140,10,10,4,20,144,financial
141,141,2,20,4,25,219,financial
142,142,9,4,9,0,74,software
143,143,9,21,7,27,81,realestate
144,144,9,29,5,25,101,realestate
145,145,14,3,5,16,181,retail
146,146,14,1,6,6,182,financial
147,147,18,24,4,27,54,realestate
148,148,12,0,4,7,104,realestate
149,149,14,0,3,12,192,realestate
150,150,12,22,2,7,105,pharmaceutical
151,151,12,9,1,6,99,financial
152,152,17,23,4,2,195,retail
153,153,13,26,4,26,98,pharmaceutical
154,154,19,0,8,7,72,software
155,155,9,2,5,23,78,retail
156,156,4,20,5,22,177,education
157,157,4,9,4,20,137,financial
158,158,18,4,0,6,103,education
159,159,18,12,5,7,78,software
160,160,5,25,0,14,119,pharmaceutical
161,161,5,25,8,23,134,retail
162,162,8,5,9,2,165,pharmaceutical
163,163,12,9,6,6,106,education
164,164,12,1,6,24,85,education
165,165,14,19,0,25,182,software
166,166,9,18,2,29,75,financial
167,167,2,13,0,12,218,education
168,168,14,8,6,23,180,financial
169,169,7,3,7,14,131,software
170,170,10,3,9,9,119,education
171,171,19,13,2,29,73,education
172,172,0,11,9,24,121,retail
173,173,7,13,9,23,163,education
174,174,0,29,9,10,120,pharmaceutical
175,175,3,8,8,12,201,financial
176,176,19,3,6,7,71,software
177,177,13,0,1,0,117,pharmaceutical
178,178,15,21,7,11,206,financial
179,179,5,13,4,2,98,education
180,180,11,19,6,29,133,pharmaceutical
181,181,12,20,7,9,101,software
182,182,15,15,0,1,211,realestate
183,183,1,17,2,25,165,retail
184,184,12,19,0,4,106,financial
185,185,16,13,7,28,160,realestate
186,186,3,0,8,2,207,education
187,187,4,6,2,6,147,software
188,188,16,23,8,28,162,financial
189,189,0,21,9,2,122,financial
190,190,15,0,8,26,202,retail
191,191,18,15,8,13,76,financial
192,192,7,6,6,2,156,realestate
193,193,4,24,0,27,174,education
194,194,8,8,4,4,167,realestate
195,195,8,0,9,17,137,software
196,196,9,20,4,3,56,realestate
197,197,9,11,2,9,90,financial
198,198,3,25,2,1,208,retail
199,199,3,15,2,26,194,retail
200,200,18,15,2,18,99,retail
201,201,9,29,9,4,45,pharmaceutical
202,202,9,24,0,21,55,financial
203,203,17,5,5,2,200,financial
204,204,19,16,0,1,113,pharmaceutical
205,205,17,20,4,2,189,pharmaceutical
206,206,9,28,5,4,77,realestate
207,207,6,23,0,12,83,software
208,208,9,22,8,20,54,software
209,209,14,16,8,21,194,pharmaceutical
210,210,3,28,7,18,213,financial
211,211,8,12,5,9,192,education
212,212,3,8,5,5,168,financial
213,213,18,12,7,0,62,software
214,214,16,24,4,11,154,realestate
215,215,10,21,6,29,90,retail
216,216,14,17,0,3,181,financial
217,217,7,6,4,22,144,financial
218,218,6,8,4,10,38,software
219,219,11,20,2,3,139,software
220,220,19,11,4,27,102,retail
221,221,11,11,8,27,95,education
222,222,5,12,9,7,118,realestate
223,223,1,24,4,14,182,education
224,224,19,2,7,1,96,pharmaceutical
225,225,4,27,5,29,136,education
226,226,1,12,9,10,235,software
227,227,17,24,8,17,195,financial
228,228,6,8,4,20,61,realestate
229,229,8,14,0,28,141,realestate
230,230,2,4,8,28,213,education
231,231,11,20,3,0,114,financial
232,232,2,14,5,24,200,software
233,233,17,4,4,3,187,realestate
234,234,9,18,8,25,62,education
235,235,5,25,7,1,112,financial
236,236,3,26,1,26,206,software
237,237,18,28,5,15,77,education
238,238,7,20,0,8,122,pharmaceutical
239,239,13,24,6,13,138,realestate
240,240,13,14,4,4,107,education
241,241,13,18,4,9,132,retail
242,242,14,24,3,8,179,pharmaceutical
243,243,4,14,9,9,175,financial
244,244,5,15,9,15,136,education
245,245,13,16,8,26,135,software
246,246,13,6,5,3,99,pharmaceutical
247,247,6,21,6,7,56,pharmaceutical
248,248,14,29,9,4,198,pharmaceutical
249,249,1,28,3,25,186,pharmaceutical
250,250,9,12,0,1,45,retail
251,251,10,12,6,11,158,retail
252,252,8,22,0,20,202,software
253,253,16,16,3,25,159,realestate
254,254,18,22,9,1,83,retail
255,255,5,7,6,4,109,financial
256,256,15,0,6,22,203,financial
257,257,8,28,2,25,139,software
258,258,10,22,5,6,99,financial
259,259,3,11,7,5,200,education
260,260,10,10,2,13,96,pharmaceutical
261,261,17,13,4,11,194,financial
262,262,14,1,7,19,183,realestate
263,263,10,25,0,26,131,education
264,264,10,29,4,1,156,retail
265,265,10,0,4,1,137,software
266,266,3,13,0,20,211,software
267,267,3,19,1,2,205,pharmaceutical
268,268,7,24,0,8,134,education
269,269,19,21,7,9,74,education
270,270,12,24,0,3,85,education
271,271,4,18,5,1,167,pharmaceutical
272,272,2,16,0,24,200,retail
273,273,11,11,3,15,107,retail
274,274,6,25,7,12,69,retail
275,275,16,29,0,7,156,education
276,276,9,4,8,6,56,software
277,277,5,7,1,6,94,financial
278,278,13,16,3,2,139,retail
279,279,18,28,7,2,58,software
280,280,8,19,5,25,119,realestate
281,281,19,19,3,27,77,realestate
282,282,3,9,9,9,212,software
283,283,4,13,6,1,188,realestate
284,284,16,19,4,15,148,pharmaceutical
285,285,10,11,5,13,131,financial
286,286,19,3,5,18,86,pharmaceutical
287,287,12,25,4,11,100,realestate
288,288,10,17,8,10,102,education
289,289,12,15,2,25,95,financial
290,290,12,4,1,17,94,software
291,291,6,25,8,10,80,education
292,292,19,4,6,28,95,pharmaceutical
293,293,13,17,7,18,141,retail
294,294,18,16,7,12,83,pharmaceutical
295,295,4,7,3,1,173,realestate
296,296,11,18,3,25,125,pharmaceutical
297,297,1,1,1,18,211,retail
298,298,6,9,8,14,59,realestate
299,299,19,21,1,20,95,realestate
300,300,12,17,5,10,93,realestate
301,301,4,14,0,21,174,software
302,302,14,20,7,19,186,software
303,303,8,2,8,20,189,education
304,304,4,18,4,7,185,financial
305,305,11,22,6,13,111,realestate
306,306,18,29,1,21,86,education
307,307,11,3,0,20,115,software
308,308,11,15,7,25,128,financial
309,309,19,19,4,24,107,retail
310,310,11,27,4,22,134,software
311,311,12,23,6,16,84,software
312,312,8,15,8,6,192,education
313,313,12,15,5,18,84,financial
314,314,8,14,9,11,155,retail
315,315,3,19,9,16,212,realestate
316,316,3,6,6,12,191,pharmaceutical
317,317,11,15,9,12,110,financial
318,318,19,6,5,0,88,financial
319,319,9,5,7,25,60,software
320,320,5,29,8,15,120,education
321,321,1,10,3,28,210,financial
322,322,5,18,2,7,103,software
323,323,13,8,1,2,98,realestate
324,324,19,15,5,20,102,financial
325,325,5,14,8,5,132,realestate
326,326,12,22,8,19,92,pharmaceutical
327,327,14,16,3,27,181,realestate
328,328,19,5,0,21,77,financial
329,329,13,11,2,10,144,realestate
330,330,7,23,6,20,125,financial
331,331,1,3,6,6,165,software
332,332,17,14,2,29,199,software
333,333,13,6,8,19,131,realestate
334,334,7,0,5,8,142,financial
335,335,3,20,4,11,198,realestate
336,336,0,2,5,29,123,retail
337,337,18,23,5,15,89,pharmaceutical
338,338,7,1,7,22,148,financial
339,339,0,24,0,23,122,financial
340,340,2,15,0,6,216,pharmaceutical
341,341,13,6,9,5,142,retail
342,342,17,11,3,2,184,realestate
343,343,11,21,4,16,101,retail
344,344,6,29,5,2,74,realestate
345,345,12,28,7,8,79,financial
346,346,13,24,5,16,140,retail
347,347,9,14,3,9,98,education
348,348,0,16,1,6,119,realestate
349,349,10,18,7,10,145,retail
350,350,8,12,5,7,124,financial
351,351,5,26,0,23,130,realestate
352,352,14,8,7,23,185,software
353,353,7,14,3,27,154,education
354,354,16,1,0,29,148,realestate
355,355,1,24,9,18,208,financial
356,356,6,15,3,5,48,pharmaceutical
357,357,11,0,9,28,97,education
358,358,14,8,5,17,182,pharmaceutical
359,359,7,21,4,4,129,retail
360,360,8,14,1,10,179,realestate
361,361,15,22,9,0,196,financial
362,362,17,0,3,2,192,education
363,363,4,27,8,1,140,education
364,364,7,27,0,19,159,pharmaceutical
365,365,7,12,4,0,142,realestate
366,366,13,8,6,26,123,education
367,367,19,21,8,26,108,education
368,368,0,12,5,15,122,realestate
369,369,3,7,7,12,190,retail
370,370,3,13,7,14,189,pharmaceutical
371,371,12,1,3,21,101,realestate
372,372,15,21,9,21,213,education
373,373,9,19,9,18,95,pharmaceutical
374,374,5,7,4,3,126,financial
375,375,15,7,0,12,187,pharmaceutical
376,376,14,13,2,18,199,retail
377,377,5,13,5,24,102,financial
378,378,17,21,2,27,191,retail
379,379,15,11,7,4,178,education
380,380,8,2,7,23,118,realestate
381,381,19,17,5,17,112,financial
382,382,5,1,8,21,110,financial
383,383,2,0,6,9,219,software
384,384,15,24,8,9,210,retail
385,385,17,15,6,6,205,education
386,386,10,28,5,25,153,pharmaceutical
387,387,14,16,2,7,181,retail
388,388,17,13,0,5,191,retail
389,389,16,6,4,23,149,retail
390,390,5,11,2,8,127,pharmaceutical
391,391,8,29,9,8,203,retail
392,392,9,0,1,16,90,education
393,393,3,27,2,14,216,education
394,394,8,2,7,1,167,education
395,395,10,26,8,26,155,financial
396,396,6,0,5,2,73,education
397,397,16,7,9,7,151,realestate
398,398,1,9,7,25,203,realestate
399,399,0,9,1,15,123,financial
400,400,14,4,3,20,190,realestate
401,401,7,18,4,2,164,pharmaceutical
402,402,18,10,3,26,71,education
403,403,15,13,5,0,205,realestate
404,404,14,16,4,21,179,financial
405,405,9,9,1,14,56,realestate
406,406,4,29,3,29,184,pharmaceutical
407,407,17,17,3,7,191,financial
408,408,9,11,8,19,73,retail
409,409,0,0,4,9,121,realestate
410,410,13,1,6,19,110,software
411,411,12,10,1,2,108,pharmaceutical
412,412,6,5,8,12,42,pharmaceutical
413,413,17,2,4,23,193,pharmaceutical
414,414,6,27,2,2,80,education
415,415,2,6,7,15,200,financial
416,416,6,15,4,26,40,software
417,417,8,5,8,19,195,retail
418,418,2,0,0,10,204,retail
419,419,0,5,9,5,122,financial
420,420,0,0,6,14,123,education
421,421,13,14,6,5,96,pharmaceutical
422,422,6,12,5,15,40,retail
423,423,0,12,1,17,120,retail
424,424,18,8,4,21,84,retail
425,425,16,18,5,18,162,software
426,426,1,23,4,27,190,retail
427,427,13,4,8,0,144,financial
428,428,10,26,1,25,94,retail
429,429,9,13,5,18,105,pharmaceutical
430,430,11,18,2,17,91,financial
431,431,4,15,6,0,168,financial
432,432,13,2,0,20,123,pharmaceutical
433,433,6,9,8,27,75,retail
434,434,18,25,3,13,93,software
435,435,8,7,3,21,114,retail
436,436,14,8,3,19,187,education
437,437,19,8,3,19,110,software
438,438,18,27,3,22,90,realestate
439,439,3,29,3,27,216,education
440,440,18,4,8,21,61,retail
441,441,8,26,1,27,169,pharmaceutical
442,442,4,19,2,12,160,financial
443,443,6,21,4,14,80,realestate
444,444,12,20,8,23,90,education
445,445,18,17,7,12,63,financial
446,446,18,0,9,18,74,software
447,447,5,17,1,23,116,realestate
448,448,5,25,9,8,112,financial
449,449,19,16,3,20,118,education
450,450,13,1,3,11,114,realestate
451,451,14,7,6,23,186,realestate
452,452,11,7,3,24,128,realestate
453,453,16,26,0,13,154,education
454,454,11,4,5,0,137,financial
455,455,7,9,1,14,140,realestate
456,456,8,20,3,19,182,software
457,457,10,13,8,17,151,software
458,458,11,28,2,29,93,retail
459,459,13,1,1,8,87,education
460,460,18,23,6,25,71,realestate
461,461,19,29,3,4,101,retail
462,462,15,7,8,20,205,pharmaceutical
463,463,1,26,3,15,200,retail
464,464,8,26,7,10,178,realestate
465,465,3,9,6,26,208,education
466,466,6,2,7,4,60,software
467,467,5,23,8,25,93,software
468,468,0,12,6,7,123,retail
469,469,13,9,4,22,104,education
470,470,7,16,7,0,131,retail
471,471,16,24,7,15,158,pharmaceutical
472,472,13,11,0,18,121,software
473,473,10,16,6,6,158,financial
474,474,2,2,7,14,211,realestate
475,475,3,25,4,11,210,retail
476,476,0,24,9,24,123,software
477,477,1,0,6,10,157,retail
478,478,6,16,0,27,65,software
479,479,1,25,5,7,224,financial
480,480,7,4,4,10,126,retail
481,481,15,24,9,0,210,financial
482,482,17,23,4,7,201,software
483,483,6,20,2,5,73,financial
484,484,17,3,6,5,198,education
485,485,15,18,0,27,202,pharmaceutical
486,486,13,29,4,19,132,education
487,487,17,27,2,13,201,financial
488,488,1,29,0,0,170,realestate
489,489,10,22,9,17,139,pharmaceutical
490,490,15,12,6,16,208,education
491,491,4,26,5,10,136,education
492,492,2,23,8,14,208,realestate
493,493,12,29,2,8,98,education
494,494,5,27,1,3,110,financial
495,495,11,23,3,15,133,realestate
496,496,10,24,0,8,121,retail
497,497,7,20,2,11,145,retail
498,498,7,4,0,11,148,retail
499,499,12,2,8,1,101,education
500,500,3,22,8,23,176,financial
501,501,9,19,3,20,94,software
502,502,19,9,2,9,111,software
503,503,5,13,1,28,95,software
504,504,18,22,7,25,93,realestate
505,505,13,11,7,10,121,education
506,506,16,26,0,28,162,software
507,507,8,14,9,10,163,retail
508,508,18,16,7,9,64,realestate
509,509,6,27,0,9,66,pharmaceutical
510,510,11,26,9,3,115,software
511,511,0,29,9,2,120,pharmaceutical
512,512,12,16,2,9,92,realestate
513,513,0,8,3,23,121,retail
514,514,17,21,5,28,193,financial
515,515,18,12,9,1,90,software
516,516,11,5,9,23,114,financial
517,517,4,5,4,4,179,financial
518,518,12,0,4,16,83,financial
519,519,6,20,7,12,39,software
520,520,19,20,7,2,97,realestate
521,521,4,25,8,6,154,financial
522,522,8,24,3,23,184,software
523,523,0,7,6,25,122,education
524,524,16,21,6,28,157,software
525,525,2,13,0,26,203,retail
526,526,9,2,9,16,86,education
527,527,16,25,8,0,161,software
528,528,4,12,8,16,154,pharmaceutical
529,529,9,29,7,6,60,software
530,530,15,8,8,15,200,education
531,531,6,7,6,14,86,realestate
532,532,5,13,7,15,135,pharmaceutical
533,533,17,11,0,3,202,financial
534,534,6,8,3,19,62,realestate
535,535,16,19,0,8,154,financial
536,536,9,10,1,7,79,education
537,537,7,12,9,7,165,software
538,538,18,8,9,22,53,education
539,539,1,10,9,3,187,pharmaceutical
540,540,11,25,7,26,92,realestate
541,541,9,13,1,23,96,financial
542,542,7,18,0,8,161,education
543,543,1,28,5,4,162,financial
544,544,17,5,9,15,194,pharmaceutical
545,545,12,20,1,15,91,realestate
546,546,6,24,1,4,73,retail
547,547,2,5,2,10,207,software
548,548,1,6,4,18,208,retail
549,549,9,17,5,14,101,realestate
550,550,15,29,4,21,194,retail
551,551,15,1,7,3,197,pharmaceutical
552,552,0,17,9,8,123,pharmaceutical
553,553,19,9,9,15,119,realestate
554,554,10,18,4,27,93,education
555,555,15,6,4,4,190,pharmaceutical
556,556,6,19,6,25,68,retail
557,557,15,19,2,11,204,financial
558,558,10,22,4,6,136,realestate
559,559,14,0,9,14,192,pharmaceutical
560,560,3,9,9,14,214,software
561,561,5,19,6,27,127,pharmaceutical
562,562,6,6,9,4,84,education
563,563,10,22,2,18,130,realestate
564,564,11,29,7,10,137,realestate
565,565,11,4,5,14,140,retail
566,566,4,3,5,26,163,retail
567,567,0,25,6,1,121,pharmaceutical
568,568,6,13,2,2,75,financial
569,569,0,7,4,15,122,software
570,570,18,10,3,4,70,realestate
571,571,13,12,2,15,120,software
572,572,19,6,3,28,95,financial
573,573,18,10,4,18,78,education
574,574,15,21,2,7,184,financial
575,575,5,14,1,1,111,education
576,576,8,18,2,1,130,pharmaceutical
577,577,2,20,1,11,203,realestate
578,578,3,18,9,10,176,pharmaceutical
579,579,8,22,8,7,157,realestate
580,580,14,25,9,16,183,software
581,581,1,19,8,28,156,software
582,582,0,4,6,2,121,software
583,583,15,3,9,16,189,education
584,584,18,9,0,20,51,retail
585,585,4,4,0,0,162,financial
586,586,2,16,3,13,200,financial
587,587,6,20,3,24,73,realestate
588,588,13,24,7,2,94,software
589,589,1,23,6,16,184,software
590,590,18,2,6,13,101,pharmaceutical
591,591,4,18,4,29,183,financial
592,592,16,25,1,24,146,education
593,593,8,28,4,13,149,education
594,594,11,10,8,13,136,retail
595,595,6,13,6,16,39,retail
596,596,0,21,0,7,123,pharmaceutical
597,597,13,13,3,16,139,financial
598,598,9,9,3,16,60,financial
599,599,13,23,6,26,121,software
600,600,6,19,8,2,73,realestate
601,601,1,29,0,21,156,realestate
602,602,2,4,7,7,219,education
603,603,17,14,0,18,183,pharmaceutical
604,604,18,14,7,20,85,retail
605,605,13,25,4,0,118,realestate
606,606,7,23,1,22,166,realestate
607,607,2,22,3,23,209,software
608,608,3,16,5,27,194,realestate
609,609,12,2,6,17,101,realestate
610,610,17,21,2,1,194,financial
611,611,2,23,1,14,206,realestate
612,612,3,29,6,1,202,pharmaceutical
613,613,3,12,2,17,204,financial
614,614,2,28,0,26,200,education
615,615,11,28,6,27,121,realestate
616,616,4,12,7,29,191,retail
617,617,18,6,1,1,51,software
618,618,11,13,7,12,94,pharmaceutical
619,619,16,19,7,24,156,education
620,620,4,25,8,10,172,realestate
621,621,18,26,8,7,52,education
622,622,19,28,4,27,90,realestate
623,623,10,18,4,5,140,retail
624,624,10,11,2,14,118,education
625,625,6,0,2,20,49,realestate
626,626,2,13,0,10,212,pharmaceutical
627,627,16,24,2,1,146,financial
628,628,14,11,0,8,198,realestate
629,629,5,8,5,27,112,pharmaceutical
630,630,8,22,0,25,165,financial
631,631,11,24,2,26,124,software
632,632,7,26,7,17,166,pharmaceutical
633,633,5,12,2,2,99,realestate
634,634,18,18,5,25,85,pharmaceutical
635,635,9,10,7,4,75,financial
636,636,7,28,3,9,122,pharmaceutical
637,637,14,9,1,5,192,education
638,638,3,18,7,10,174,financial
639,639,2,7,2,22,219,education
640,640,5,15,4,21,107,retail
641,641,2,16,8,19,200,pharmaceutical
642,642,7,23,4,0,136,pharmaceutical
643,643,10,22,9,7,96,pharmaceutical
644,644,11,6,5,19,133,pharmaceutical
645,645,9,1,7,20,74,realestate
646,646,4,1,3,21,163,retail
647,647,13,9,1,9,122,realestate
648,648,15,26,0,18,196,software
649,649,10,23,8,3,157,education
650,650,10,22,9,7,89,retail
651,651,0,1,8,8,120,software
652,652,16,7,2,3,157,software
653,653,4,28,0,23,141,education
654,654,3,29,7,9,191,retail
655,655,9,5,5,17,87,financial
656,656,16,27,7,25,152,realestate
657,657,6,10,1,8,69,education
658,658,8,6,1,14,165,pharmaceutical
659,659,5,23,4,16,98,pharmaceutical
660,660,18,13,0,11,52,realestate
661,661,14,10,5,18,180,retail
662,662,11,12,0,10,141,software
663,663,7,19,7,23,131,pharmaceutical
664,664,15,19,8,17,216,retail
665,665,9,12,3,16,80,financial
666,666,13,6,0,23,104,software
667,667,17,18,5,9,184,financial
668,668,11,12,9,11,106,software
669,669,5,10,5,11,123,education
670,670,7,9,7,3,139,realestate
671,671,12,27,8,27,84,education
672,672,10,16,1,11,120,pharmaceutical
673,673,5,12,5,29,92,financial
674,674,1,8,0,6,221,financial
675,675,1,2,8,6,165,education
676,676,11,25,3,27,128,pharmaceutical
677,677,2,12,5,10,214,pharmaceutical
678,678,4,28,9,24,180,retail
679,679,15,17,1,10,219,pharmaceutical
680,680,13,1,7,27,111,financial
681,681,7,11,2,6,139,software
682,682,10,0,9,3,133,software
683,683,17,15,0,1,184,realestate
684,684,17,25,4,27,204,realestate
685,685,13,2,4,29,134,realestate
686,686,0,23,7,29,119,financial
687,687,12,18,7,17,106,realestate
688,688,13,4,4,24,105,realestate
689,689,5,13,5,22,114,pharmaceutical
690,690,0,25,6,25,119,education
691,691,9,23,8,14,89,education
692,692,19,0,8,27,77,education
693,693,11,18,8,10,99,pharmaceutical
694,694,12,26,9,2,110,pharmaceutical
695,695,12,28,7,4,109,realestate
696,696,13,18,1,28,129,retail
697,697,13,7,7,17,103,retail
698,698,3,24,9,12,203,realestate
699,699,9,5,8,17,65,realestate
700,700,13,17,6,1,133,software
701,701,18,5,5,0,89,pharmaceutical
702,702,7,28,9,18,163,realestate
703,703,9,25,7,28,90,software
704,704,18,23,0,3,81,financial
705,705,9,7,0,26,71,realestate
706,706,12,16,3,21,100,retail
707,707,18,11,2,20,67,pharmaceutical
708,708,3,18,2,11,189,pharmaceutical
709,709,1,4,1,1,183,education
710,710,16,18,0,7,150,realestate
711,711,8,11,4,12,122,pharmaceutical
712,712,4,25,8,13,177,retail
713,713,2,16,7,16,203,education
714,714,16,21,2,9,147,financial
715,715,4,5,7,22,188,realestate
716,716,2,6,6,7,211,education
717,717,15,5,0,17,211,retail
718,718,15,0,4,20,180,education
719,719,7,2,7,18,163,retail
720,720,2,28,1,15,211,pharmaceutical
721,721,10,5,0,8,157,education
722,722,2,28,4,22,215,retail
723,723,0,17,4,13,122,pharmaceutical
724,724,14,29,8,28,180,education
725,725,10,13,0,25,107,retail
726,726,12,9,3,19,80,realestate
727,727,15,14,7,4,218,retail
728,728,5,0,9,25,122,software
729,729,8,0,2,1,179,retail
730,730,9,0,4,15,43,software
731,731,12,21,0,29,109,software
732,732,11,27,2,12,107,education
733,733,5,4,8,3,132,retail
734,734,10,18,1,13,126,software
735,735,12,26,2,27,78,financial
736,736,9,28,6,17,84,realestate
737,737,9,21,8,19,52,pharmaceutical
738,738,3,16,7,5,172,realestate
739,739,4,2,9,4,172,retail
740,740,18,16,4,7,98,financial
741,741,4,1,6,21,170,financial
742,742,1,23,6,16,213,financial
743,743,1,13,2,3,195,realestate
744,744,6,18,0,21,55,pharmaceutical
745,745,6,26,5,9,50,education
746,746,7,21,9,8,120,software
747,747,9,13,0,3,75,pharmaceutical
748,748,16,5,1,16,149,pharmaceutical
749,749,13,12,1,24,97,retail
750,750,0,9,6,23,121,software
751,751,6,19,0,15,55,retail
752,752,4,22,5,16,142,software
753,753,14,9,0,0,189,financial
754,754,3,6,0,13,180,pharmaceutical
755,755,9,19,6,24,50,retail
756,756,15,7,4,22,180,pharmaceutical
757,757,2,16,6,22,202,retail
758,758,16,15,0,16,155,software
759,759,6,15,4,23,81,pharmaceutical
760,760,3,1,3,19,189,realestate
761,761,6,7,4,29,68,pharmaceutical
762,762,14,16,2,6,194,retail
763,763,12,8,2,17,107,retail
764,764,10,3,3,3,104,retail
765,765,15,27,6,5,193,financial
766,766,6,22,5,0,80,retail
767,767,17,26,4,22,186,realestate
768,768,19,10,7,24,81,financial
769,769,1,16,5,19,174,retail
770,770,15,25,3,27,181,software
771,771,14,21,7,28,191,pharmaceutical
772,772,10,11,3,22,157,financial
773,773,14,11,0,19,186,financial
774,774,4,21,8,28,173,realestate
775,775,5,26,6,21,109,retail
776,776,9,6,5,23,62,pharmaceutical
777,777,12,14,7,22,106,education
778,778,7,23,2,26,143,education
779,779,11,0,5,3,93,education
780,780,15,5,5,18,206,financial
781,781,14,20,8,25,192,education
782,782,11,27,3,0,130,education
783,783,14,24,7,3,191,realestate
784,784,12,19,7,21,90,retail
785,785,5,25,7,13,140,software
786,786,14,0,5,1,183,pharmaceutical
787,787,9,13,4,0,98,retail
788,788,6,19,2,10,64,retail
789,789,19,9,7,16,117,education
790,790,2,22,7,5,211,realestate
791,791,15,18,9,28,194,retail
792,792,8,29,6,9,140,realestate
793,793,0,24,0,21,123,realestate
794,794,14,16,8,25,181,financial
795,795,11,3,6,10,132,financial
796,796,9,5,3,18,87,software
797,797,6,29,0,16,60,education
798,798,5,4,4,9,136,software
799,799,16,6,4,13,149,pharmaceutical
800,800,9,11,0,13,101,pharmaceutical
801,801,10,28,1,8,153,pharmaceutical
802,802,7,17,1,2,161,education
803,803,17,6,0,8,192,retail
804,804,0,8,9,10,123,software
805,805,19,16,4,13,88,realestate
806,806,19,12,2,1,77,software
807,807,12,27,2,1,109,retail
808,808,16,11,8,29,156,financial
809,809,19,0,1,21,77,retail
810,810,1,18,6,16,209,realestate
811,811,12,12,9,20,100,education
812,812,18,1,1,5,91,pharmaceutical
813,813,12,7,8,14,92,pharmaceutical
814,814,0,24,2,15,123,education
815,815,14,14,5,15,183,education
816,816,4,19,7,14,132,software
817,817,5,0,7,17,102,education
818,818,0,23,3,11,120,retail
819,819,0,19,2,24,123,software
820,820,6,10,0,25,38,realestate
821,821,1,17,3,11,175,realestate
822,822,19,8,1,27,81,financial
823,823,5,8,1,14,140,financial
824,824,10,28,1,11,156,software
825,825,10,19,7,21,136,education
826,826,6,19,2,29,43,realestate
827,827,1,20,5,17,213,pharmaceutical
828,828,2,10,2,7,201,education
829,829,3,9,3,13,207,software
830,830,9,4,0,9,53,retail
831,831,18,9,0,1,67,software
832,832,18,16,2,18,52,software
833,833,12,5,1,23,101,software
834,834,11,24,2,11,122,retail
835,835,17,12,0,13,185,financial
836,836,15,15,7,23,216,education
837,837,19,28,5,17,93,financial
838,838,11,13,2,4,118,retail
839,839,6,2,3,23,71,financial
840,840,19,19,2,22,71,realestate
841,841,4,28,9,22,165,education
842,842,16,20,6,18,149,realestate
843,843,2,29,0,9,210,financial
844,844,18,2,3,21,88,education
845,845,6,0,9,6,48,financial
846,846,15,18,0,16,180,pharmaceutical
847,847,2,17,5,11,216,software
848,848,10,24,8,11,99,pharmaceutical
849,849,9,16,6,4,65,software
850,850,16,3,6,0,160,financial
851,851,2,15,6,3,217,education
852,852,0,7,1,15,119,software
853,853,8,7,3,28,115,financial
854,854,7,4,3,22,160,pharmaceutical
855,855,13,15,7,11,113,software
856,856,3,12,4,21,196,realestate
857,857,7,26,5,22,160,retail
858,858,6,25,1,1,81,software
859,859,12,21,7,18,84,software
860,860,18,2,0,4,64,software
861,861,6,15,3,24,73,realestate
862,862,4,26,5,25,132,realestate
863,863,18,4,5,26,56,retail
864,864,18,5,0,13,62,financial
865,865,10,24,2,9,140,retail
866,866,0,18,8,2,123,retail
867,867,9,6,8,7,54,education
868,868,9,21,9,29,92,pharmaceutical
869,869,18,22,4,9,55,software
870,870,15,26,7,12,202,software
871,871,0,6,4,25,120,education
872,872,19,24,2,19,94,software
873,873,2,15,3,2,210,retail
874,874,12,7,4,17,90,retail
875,875,18,20,1,6,92,pharmaceutical
876,876,6,11,4,25,59,retail
877,877,3,24,5,4,178,financial
878,878,16,20,9,13,151,realestate
879,879,11,17,8,12,126,pharmaceutical
880,880,13,28,9,15,131,realestate
881,881,7,28,3,21,147,software
882,882,7,10,9,1,137,financial
883,883,2,24,6,3,201,financial
884,884,3,28,7,12,208,retail
885,885,4,12,3,8,153,software
886,886,1,7,5,13,169,retail
887,887,2,27,4,17,206,software
888,888,10,22,8,21,134,education
889,889,8,0,0,8,172,realestate
890,890,8,7,6,16,184,education
891,891,14,1,3,0,187,education
892,892,0,2,4,11,122,financial
893,893,0,4,9,8,119,pharmaceutical
894,894,19,29,4,29,82,software
895,895,16,1,6,24,147,financial
896,896,17,24,3,21,191,financial
897,897,9,17,8,26,60,retail
898,898,5,3,3,12,98,retail
899,899,7,21,9,12,163,retail
900,900,11,8,9,20,138,retail
901,901,8,24,8,0,196,education
902,902,9,9,7,3,57,financial
903,903,9,16,3,5,102,software
904,904,6,8,0,6,74,retail
905,905,10,3,5,9,114,education
906,906,14,4,7,13,185,pharmaceutical
907,907,0,1,0,10,123,education
908,908,0,9,5,12,119,realestate
909,909,1,5,6,9,190,financial
910,910,14,4,4,10,184,retail
911,911,4,7,6,4,155,realestate
912,912,5,3,1,13,111,realestate
913,913,19,17,8,4,115,realestate
914,914,11,27,5,21,122,pharmaceutical
915,915,14,6,3,13,190,realestate
916,916,12,3,6,11,104,financial
917,917,4,19,7,15,133,financial
918,918,7,25,5,8,160,pharmaceutical
919,919,16,20,9,28,158,retail
920,920,11,18,4,0,140,realestate
921,921,12,5,9,21,101,realestate
922,922,6,16,9,7,63,software
923,923,16,18,9,11,154,software
924,924,1,28,4,11,176,software
925,925,11,5,9,8,121,retail
926,926,10,11,9,25,93,pharmaceutical
927,927,13,19,2,7,116,pharmaceutical
928,928,19,21,7,5,107,pharmaceutical
929,929,0,16,7,14,121,retail
930,930,7,7,9,14,163,retail
931,931,17,12,1,15,202,pharmaceutical
932,932,12,7,5,18,97,financial
933,933,17,19,8,17,198,education
934,934,0,28,0,29,123,software
935,935,1,28,7,3,222,financial
936,936,2,13,9,9,212,software
937,937,12,1,5,27,99,software
938,938,17,12,0,5,191,retail
939,939,19,28,6,14,83,education
940,940,10,5,4,2,156,pharmaceutical
941,941,15,20,1,0,207,retail
942,942,11,28,8,23,114,financial
943,943,17,15,9,3,205,realestate
944,944,19,9,9,9,84,software
945,945,2,7,7,7,204,pharmaceutical
946,946,15,27,1,5,192,financial
947,947,0,2,9,6,122,retail
948,948,19,9,8,23,87,pharmaceutical
949,949,18,23,6,26,80,financial
950,950,8,2,3,15,139,education
951,951,15,16,3,4,197,education
952,952,18,9,9,13,58,retail
953,953,8,19,1,7,153,software
954,954,8,6,7,8,115,retail
955,955,2,28,0,29,212,realestate
956,956,5,3,8,10,135,realestate
957,957,16,5,7,13,157,software
958,958,9,14,0,24,62,pharmaceutical
959,959,7,23,1,29,155,financial
960,960,8,20,9,14,116,financial
961,961,16,9,6,20,159,pharmaceutical
962,962,13,21,1,3,90,education
963,963,12,2,7,26,81,retail
964,964,9,29,3,8,99,software
965,965,5,26,9,9,132,retail
966,966,16,21,3,16,158,education
967,967,8,23,4,6,124,pharmaceutical
968,968,6,15,3,3,61,financial
969,969,19,23,6,15,89,realestate
970,970,14,15,2,12,197,education
971,971,12,25,0,16,106,retail
972,972,0,27,7,7,119,realestate
973,973,5,11,5,3,133,retail
974,974,1,29,8,14,236,financial
975,975,18,13,8,14,89,financial
976,976,1,4,8,15,164,software
977,977,0,18,5,10,122,pharmaceutical
978,978,16,13,2,1,148,retail
979,979,5,28,5,21,103,realestate
980,980,11,22,9,2,97,financial
981,981,17,28,9,22,200,education
982,982,11,27,6,20,103,retail
983,983,8,29,6,12,155,pharmaceutical
984,984,16,11,8,15,162,financial
985,985,3,12,8,25,176,pharmaceutical
986,986,9,1,5,11,53,retail
987,987,0,18,5,20,119,education
988,988,16,0,6,5,146,financial
989,989,0,3,2,3,123,education
990,990,0,2,8,9,121,pharmaceutical
991,991,12,3,5,6,103,software
992,992,1,10,6,24,175,realestate
993,993,4,22,1,15,157,pharmaceutical
994,994,19,20,6,9,95,pharmaceutical
995,995,8,22,1,14,138,education
996,996,2,21,0,20,212,retail
997,997,0,28,2,20,119,realestate
998,998,12,2,0,14,99,retail
999,999,3,22,1,10,200,financial
1000,1000,1,13,2,1,159,education
1001,1001,0,3,8,11,120,pharmaceutical
1002,1002,16,10,3,27,160,realestate
1003,1003,19,17,0,1,108,education
1004,1004,7,2,6,10,121,financial
1005,1005,19,11,5,6,92,retail
1006,1006,6,26,8,13,46,retail
1007,1007,8,15,2,17,160,financial
1008,1008,5,0,7,0,136,education
1009,1009,8,15,4,26,125,financial
1010,1010,17,27,2,6,192,retail
1011,1011,8,28,2,25,148,pharmaceutical
1012,1012,5,19,8,0,103,financial
1013,1013,9,7,3,24,101,education
1014,1014,14,17,7,27,195,software
1015,1015,17,7,1,4,183,realestate
1016,1016,3,10,1,16,191,retail
1017,1017,2,12,8,11,199,pharmaceutical
1018,1018,17,12,6,21,183,education
1019,1019,9,12,4,24,80,financial
1020,1020,13,14,4,20,106,financial
1021,1021,17,20,3,23,203,education
1022,1022,19,11,5,4,99,retail
1023,1023,16,26,1,19,158,education
1024,1024,1,17,9,17,179,retail
1025,1025,13,29,0,26,137,financial
1026,1026,6,8,2,0,56,realestate
1027,1027,8,6,0,7,176,realestate
1028,1028,2,10,4,6,212,realestate
1029,1029,2,28,3,23,207,education
1030,1030,13,22,3,1,141,realestate
1031,1031,9,29,1,25,80,pharmaceutical
1032,1032,18,5,6,9,87,retail
1033,1033,2,29,7,19,209,financial
1034,1034,4,18,7,8,182,financial
1035,1035,4,4,6,22,176,financial
1036,1036,7,24,7,20,160,financial
1037,1037,1,22,6,24,217,financial
1038,1038,4,3,6,17,190,software
1039,1039,2,21,0,15,209,education
1040,1040,9,25,0,15,56,realestate
1041,1041,18,10,8,5,53,software
1042,1042,7,15,0,2,137,financial
1043,1043,3,24,8,5,179,retail
1044,1044,17,2,7,20,203,financial
1045,1045,11,19,4,27,110,retail
1046,1046,3,10,7,14,212,financial
1047,1047,1,14,8,20,181,education
1048,1048,5,3,3,8,112,financial
1049,1049,4,5,9,19,143,education
1050,1050,17,16,2,9,185,retail
1051,1051,3,10,3,22,167,retail
1052,1052,8,20,1,5,182,retail
1053,1053,1,28,3,0,200,education
1054,1054,2,17,5,20,215,pharmaceutical
1055,1055,1,5,2,18,186,realestate
1056,1056,11,0,5,26,129,software
1057,1057,6,5,0,2,40,financial
1058,1058,9,25,4,23,91,software
1059,1059,10,2,8,16,155,education
1060,1060,10,27,9,24,125,realestate
1061,1061,7,2,8,17,133,education
1062,1062,12,27,9,19,95,realestate
1063,1063,10,19,7,1,121,retail
1064,1064,6,6,1,4,63,pharmaceutical
1065,1065,17,4,8,4,196,pharmaceutical
1066,1066,17,3,0,21,198,realestate
1067,1067,15,22,6,28,197,software
1068,1068,0,22,7,22,119,retail
1069,1069,7,12,7,20,158,retail
1070,1070,16,18,0,9,162,realestate
1071,1071,0,27,2,1,123,pharmaceutical
1072,1072,11,26,6,27,94,software
1073,1073,4,20,5,9,154,education
1074,1074,0,17,0,6,122,pharmaceutical
1075,1075,8,4,2,9,133,pharmaceutical
1076,1076,10,24,4,4,152,realestate
1077,1077,9,10,4,13,101,pharmaceutical
1078,1078,0,14,2,13,120,software
1079,1079,5,10,4,14,140,financial
1080,1080,9,4,7,15,97,software
1081,1081,10,13,6,24,97,pharmaceutical
1082,1082,0,23,7,16,122,education
1083,1083,0,2,4,22,123,pharmaceutical
1084,1084,3,22,9,25,187,education
1085,1085,10,18,4,10,123,realestate
1086,1086,4,25,9,10,191,financial
1087,1087,5,28,3,19,106,realestate
1088,1088,13,21,3,28,116,pharmaceutical
1089,1089,12,14,0,28,105,retail
1090,1090,17,6,1,11,184,education
1091,1091,8,17,2,16,146,financial
1092,1092,6,19,3,17,58,financial
1093,1093,15,21,7,4,201,financial
1094,1094,15,11,0,16,200,realestate
1095,1095,7,13,8,20,160,software
1096,1096,14,16,4,11,180,education
1097,1097,6,14,3,10,47,software
1098,1098,11,21,5,15,124,retail
1099,1099,19,20,6,18,102,realestate
1100,1100,9,8,0,23,84,software
1101,1101,17,2,1,3,199,software
1102,1102,6,8,1,9,86,retail
1103,1103,15,29,7,25,178,retail
1104,1104,2,26,6,2,212,pharmaceutical
1105,1105,19,4,5,1,86,financial
1106,1106,19,20,3,16,74,education
1107,1107,16,21,7,18,146,financial
1108,1108,5,29,9,16,138,education
1109,1109,4,22,2,0,187,software
1110,1110,15,1,6,10,214,financial
1111,1111,19,0,9,6,114,education
1112,1112,15,22,2,3,201,software
1113,1113,0,25,6,12,123,education
1114,1114,19,20,9,22,112,pharmaceutical
1115,1115,0,19,1,15,122,realestate
1116,1116,0,6,8,4,119,realestate
1117,1117,18,9,6,12,58,software
1118,1118,15,1,9,20,181,pharmaceutical
1119,1119,19,0,9,26,112,financial
1120,1120,7,0,1,11,123,realestate
1121,1121,19,18,2,15,94,retail
1122,1122,5,26,5,19,129,retail
1123,1123,7,7,4,23,138,software
1124,1124,17,26,2,20,186,pharmaceutical
1125,1125,18,14,7,3,58,pharmaceutical
1126,1126,3,21,2,16,170,education
1127,1127,3,29,1,7,200,financial
1128,1128,3,14,1,12,169,pharmaceutical
1129,1129,5,12,2,5,128,education
1130,1130,7,27,4,13,161,software
1131,1131,14,8,6,14,182,pharmaceutical
1132,1132,11,25,2,8,102,financial
1133,1133,3,4,9,4,182,retail
1134,1134,2,11,9,16,214,software
1135,1135,10,13,6,21,89,realestate
1136,1136,11,5,0,6,95,pharmaceutical
1137,1137,13,9,8,13,100,pharmaceutical
1138,1138,1,20,8,9,197,education
1139,1139,15,12,9,3,198,retail
1140,1140,18,18,6,7,54,software
1141,1141,12,18,3,23,97,financial
1142,1142,9,14,1,9,102,pharmaceutical
1143,1143,18,22,2,29,57,retail
1144,1144,7,10,3,26,146,realestate
1145,1145,13,25,5,22,106,pharmaceutical
1146,1146,9,10,7,0,102,realestate
1147,1147,5,16,0,26,95,financial
1148,1148,7,29,2,29,135,pharmaceutical
1149,1149,15,22,6,27,219,education
1150,1150,5,9,3,11,134,financial
1151,1151,16,14,4,21,157,education
1152,1152,19,13,8,10,104,pharmaceutical
1153,1153,14,15,8,5,190,realestate
1154,1154,1,14,7,4,209,retail
1155,1155,18,9,2,0,102,financial
1156,1156,12,23,5,15,83,pharmaceutical
1157,1157,4,2,9,25,178,financial
1158,1158,12,19,6,18,98,retail
1159,1159,6,18,9,16,79,software
1160,1160,16,20,5,25,154,pharmaceutical
1161,1161,13,23,7,2,110,software
1162,1162,0,28,7,0,119,education
1163,1163,17,22,2,21,199,retail
1164,1164,2,8,9,5,219,software
1165,1165,9,13,3,13,66,realestate
1166,1166,8,27,6,24,174,financial
1167,1167,5,3,8,0,126,realestate
1168,1168,4,22,0,26,174,financial
1169,1169,10,6,5,28,142,education
1170,1170,17,21,3,23,185,software
1171,1171,8,29,2,0,205,financial
1172,1172,0,22,6,4,119,pharmaceutical
1173,1173,1,6,6,21,178,financial
1174,1174,18,24,8,11,100,financial
1175,1175,6,6,0,25,53,software
1176,1176,13,8,0,11,87,realestate
1177,1177,5,7,5,14,100,retail
1178,1178,14,17,5,9,190,retail
1179,1179,13,4,9,4,104,software
1180,1180,2,11,1,21,201,financial
1181,1181,7,10,3,12,138,pharmaceutical
1182,1182,4,6,3,25,191,software
1183,1183,15,24,2,5,195,education
1184,1184,2,23,1,21,207,retail
1185,1185,1,21,7,12,204,realestate
1186,1186,6,4,2,14,50,realestate
1187,1187,15,7,4,9,213,retail
1188,1188,15,8,4,13,205,education
1189,1189,17,18,2,12,194,retail
1190,1190,6,11,0,29,49,software
1191,1191,9,11,2,13,53,software
1192,1192,8,14,7,5,207,realestate
1193,1193,3,12,2,5,172,financial
1194,1194,11,4,7,11,102,education
1195,1195,11,15,8,8,106,software
1196,1196,5,18,6,0,123,realestate
1197,1197,7,1,4,12,134,software
1198,1198,12,26,9,20,94,pharmaceutical
1199,1199,4,13,3,4,147,financial
1200,1200,14,17,3,23,189,pharmaceutical
1201,1201,1,9,6,20,199,retail
1202,1202,0,23,1,19,120,education
1203,1203,4,0,0,23,161,education
1204,1204,12,2,9,29,104,education
1205,1205,3,15,1,1,186,retail
1206,1206,10,27,7,16,123,education
1207,1207,16,27,4,24,150,education
1208,1208,10,19,6,16,133,realestate
1209,1209,17,8,5,2,201,education
1210,1210,19,5,9,8,91,retail
1211,1211,10,29,3,26,156,pharmaceutical
1212,1212,15,24,8,24,195,financial
1213,1213,4,11,5,13,173,education
1214,1214,18,19,6,13,97,pharmaceutical
1215,1215,0,21,4,24,123,retail
1216,1216,5,22,8,2,131,realestate
1217,1217,17,15,1,5,205,retail
1218,1218,7,4,1,5,135,software
1219,1219,12,15,0,4,89,financial
1220,1220,9,28,8,22,88,retail
1221,1221,14,16,8,23,198,pharmaceutical
1222,1222,13,25,8,13,93,retail
1223,1223,14,7,1,24,197,financial
1224,1224,9,10,6,5,56,financial
1225,1225,10,11,7,28,114,pharmaceutical
1226,1226,11,0,7,16,113,pharmaceutical
1227,1227,19,27,4,28,77,financial
1228,1228,5,12,5,28,109,retail
1229,1229,5,10,5,18,112,software
1230,1230,18,2,2,0,72,software
1231,1231,12,29,4,13,103,financial
1232,1232,2,5,3,25,201,software
1233,1233,15,21,9,3,180,pharmaceutical
1234,1234,5,9,7,9,126,education
1235,1235,0,19,1,9,121,financial
1236,1236,14,21,3,12,186,realestate
1237,1237,3,26,6,8,198,pharmaceutical
1238,1238,16,25,6,25,161,financial
1239,1239,11,6,9,22,133,retail
1240,1240,16,26,6,12,159,software
1241,1241,17,3,3,14,199,pharmaceutical
1242,1242,11,3,6,11,129,financial
1243,1243,1,1,7,18,188,retail
1244,1244,2,3,3,16,219,realestate
1245,1245,16,20,9,2,147,retail
1246,1246,16,14,2,27,146,retail
1247,1247,19,20,3,6,97,retail
1248,1248,7,23,3,23,158,education
1249,1249,6,9,4,18,47,retail
1250,1250,5,11,8,18,110,software
1251,1251,2,6,0,25,217,pharmaceutical
1252,1252,15,8,0,10,179,financial
1253,1253,9,5,9,19,72,pharmaceutical
1254,1254,13,21,3,25,127,software
1255,1255,11,26,0,3,120,realestate
1256,1256,19,2,4,27,89,software
1257,1257,15,27,6,28,191,education
1258,1258,16,25,2,21,151,realestate
1259,1259,8,20,9,26,181,pharmaceutical
1260,1260,5,19,1,12,124,retail
1261,1261,7,27,0,3,120,retail
1262,1262,17,5,9,23,195,realestate
1263,1263,0,8,3,17,121,financial
1264,1264,19,8,9,18,106,pharmaceutical
1265,1265,16,0,7,25,151,financial
1266,1266,0,25,4,18,121,realestate
1267,1267,5,16,3,26,95,education
1268,1268,17,2,0,13,186,software
1269,1269,15,29,8,4,220,software
1270,1270,2,27,6,28,215,financial
1271,1271,19,29,2,27,75,education
1272,1272,17,21,9,14,202,retail
1273,1273,16,28,5,28,147,software
1274,1274,15,22,9,1,182,software
1275,1275,17,0,1,17,184,realestate
1276,1276,17,2,6,11,197,software
1277,1277,10,26,4,20,149,retail
1278,1278,2,7,3,18,210,education
1279,1279,13,22,0,19,134,education
1280,1280,8,17,1,2,141,retail
1281,1281,15,25,3,2,200,pharmaceutical
1282,1282,11,26,6,24,132,retail
1283,1283,5,22,6,22,104,realestate
1284,1284,9,17,5,20,74,software
1285,1285,7,8,1,6,131,education
1286,1286,1,15,2,26,196,software
1287,1287,0,9,4,2,122,financial
1288,1288,16,20,8,14,153,pharmaceutical
1289,1289,5,10,5,25,137,education
1290,1290,15,19,5,25,198,pharmaceutical
1291,1291,3,13,1,1,191,software
1292,1292,6,0,1,5,42,pharmaceutical
1293,1293,5,8,9,13,132,realestate
1294,1294,7,27,5,25,158,pharmaceutical
1295,1295,8,20,5,24,115,software
1296,1296,17,15,6,15,205,software
1297,1297,2,16,8,18,213,retail
1298,1298,14,9,8,27,184,education
1299,1299,10,28,8,7,119,pharmaceutical
1300,1300,6,22,4,17,64,education
1301,1301,0,11,1,9,123,education
1302,1302,15,16,3,2,214,retail
1303,1303,16,25,5,10,151,financial
1304,1304,12,4,8,12,87,retail
1305,1305,18,16,4,19,101,realestate
1306,1306,2,18,5,2,213,financial
1307,1307,17,23,6,22,191,software
1308,1308,2,14,5,20,211,education
1309,1309,13,4,2,1,127,retail
1310,1310,8,10,8,4,114,pharmaceutical
1311,1311,12,23,3,21,107,financial
1312,1312,4,8,6,27,162,retail
1313,1313,0,21,1,21,120,software
1314,1314,18,25,0,24,75,software
1315,1315,4,21,2,14,152,education
1316,1316,2,25,4,25,206,financial
1317,1317,17,0,4,29,195,software
1318,1318,11,16,6,22,109,retail
1319,1319,3,13,9,10,204,pharmaceutical
1320,1320,5,14,6,21,123,realestate
1321,1321,17,6,4,7,197,realestate
1322,1322,3,12,6,28,177,software
1323,1323,8,28,3,18,199,realestate
1324,1324,12,22,6,12,108,pharmaceutical
1325,1325,16,18,9,18,154,retail
1326,1326,18,0,8,20,101,software
1327,1327,0,9,9,16,120,retail
1328,1328,16,28,6,7,146,education
1329,1329,16,23,2,3,149,education
1330,1330,18,0,8,1,101,pharmaceutical
1331,1331,10,11,0,17,156,retail
1332,1332,13,20,8,15,138,realestate
1333,1333,3,0,2,0,199,education
1334,1334,2,10,1,17,204,realestate
1335,1335,15,29,6,19,205,retail
1336,1336,9,14,7,25,82,realestate
1337,1337,9,15,7,16,88,education
1338,1338,16,6,1,23,162,retail
1339,1339,12,21,8,26,92,retail
1340,1340,17,1,0,18,185,financial
1341,1341,19,13,3,17,76,software
1342,1342,2,22,1,17,202,pharmaceutical
1343,1343,3,18,9,7,189,financial
1344,1344,7,2,3,18,129,education
1345,1345,11,4,0,13,95,pharmaceutical
1346,1346,8,4,0,22,157,financial
1347,1347,1,27,2,27,206,education
1348,1348,7,11,9,27,156,retail
1349,1349,5,26,8,13,117,software
1350,1350,13,6,8,4,132,pharmaceutical
1351,1351,2,20,0,27,202,software
1352,1352,3,22,6,14,207,software
1353,1353,7,3,7,0,130,realestate
1354,1354,13,27,7,9,136,software
1355,1355,19,29,9,11,96,financial
1356,1356,6,6,3,14,68,retail
1357,1357,18,7,5,7,101,education
1358,1358,3,16,2,22,201,education
1359,1359,5,10,5,12,119,pharmaceutical
1360,1360,9,5,4,11,98,retail
1361,1361,8,21,0,16,180,financial
1362,1362,9,3,1,9,77,pharmaceutical
1363,1363,0,12,1,9,120,retail
1364,1364,17,9,0,3,204,realestate
1365,1365,10,2,0,5,144,pharmaceutical
1366,1366,17,3,8,28,205,pharmaceutical
1367,1367,11,4,9,26,137,pharmaceutical
1368,1368,0,16,7,27,123,retail
1369,1369,2,28,2,19,203,financial
1370,1370,18,4,9,17,55,financial
1371,1371,7,23,4,22,126,education
1372,1372,12,27,2,3,81,software
1373,1373,3,14,8,24,202,financial
1374,1374,12,26,9,7,94,education
1375,1375,11,8,5,9,96,financial
1376,1376,5,27,1,15,115,realestate
1377,1377,9,28,4,21,71,pharmaceutical
1378,1378,12,0,9,5,84,realestate
1379,1379,10,22,7,16,135,financial
1380,1380,7,20,3,22,148,financial
1381,1381,12,0,6,6,98,education
1382,1382,13,21,9,26,109,financial
1383,1383,16,1,7,21,156,software
1384,1384,17,10,6,29,197,realestate
1385,1385,18,21,6,3,73,education
1386,1386,8,7,5,20,161,financial
1387,1387,15,18,4,5,218,realestate
1388,1388,6,7,2,3,81,financial
1389,1389,0,26,8,15,122,financial
1390,1390,15,9,0,9,199,retail
1391,1391,2,18,7,0,202,software
1392,1392,14,20,1,5,183,software
1393,1393,18,21,5,12,65,software
1394,1394,2,9,7,0,207,software
1395,1395,17,27,4,28,200,education
1396,1396,19,26,8,15,85,realestate
1397,1397,14,12,9,26,199,retail
1398,1398,2,11,9,6,218,financial
1399,1399,8,11,2,21,150,education
1400,1400,6,10,2,3,55,retail
1401,1401,11,3,7,25,124,pharmaceutical
1402,1402,19,17,2,6,92,software
1403,1403,14,19,8,12,197,pharmaceutical
1404,1404,17,29,3,3,189,realestate
1405,1405,5,0,8,6,96,education
1406,1406,13,8,4,0,103,retail
1407,1407,6,15,2,19,80,realestate
1408,1408,15,9,8,22,206,education
1409,1409,1,26,4,21,184,retail
1410,1410,11,12,0,17,141,education
1411,1411,8,3,3,20,182,education
1412,1412,4,1,4,17,149,financial
1413,1413,3,5,2,25,208,realestate
1414,1414,9,7,6,20,74,financial
1415,1415,1,28,1,4,234,financial
1416,1416,11,10,7,3,108,pharmaceutical
1417,1417,18,28,6,28,63,retail
1418,1418,8,12,3,16,199,software
1419,1419,5,16,4,29,95,pharmaceutical
1420,1420,13,4,0,11,136,retail
1421,1421,15,14,0,23,215,retail
1422,1422,8,11,8,15,128,software
1423,1423,16,21,6,14,152,realestate
1424,1424,17,17,8,25,188,realestate
1425,1425,19,27,7,5,117,financial
1426,1426,9,27,9,5,55,education
1427,1427,13,22,2,8,117,financial
1428,1428,2,16,2,10,212,realestate
1429,1429,4,23,0,21,166,education
1430,1430,10,15,9,17,89,retail
1431,1431,15,18,6,12,212,pharmaceutical
1432,1432,13,12,8,22,110,pharmaceutical
1433,1433,12,21,9,11,110,software
1434,1434,12,16,0,10,98,financial
1435,1435,12,7,1,13,78,financial
1436,1436,16,3,5,12,153,software
1437,1437,12,1,5,15,108,education
1438,1438,19,22,8,26,80,retail
1439,1439,3,17,8,9,198,pharmaceutical
1440,1440,4,14,1,16,142,realestate
1441,1441,16,5,4,25,148,software
1442,1442,8,16,3,5,118,retail
1443,1443,18,27,5,22,58,realestate
1444,1444,7,3,8,10,126,software
1445,1445,16,12,9,13,152,pharmaceutical
1446,1446,10,29,6,12,117,software
1447,1447,2,0,4,26,206,retail
1448,1448,1,20,9,19,176,education
1449,1449,16,19,5,3,159,pharmaceutical
1450,1450,6,29,6,15,53,financial
1451,1451,1,27,1,27,228,realestate
1452,1452,10,25,9,27,105,realestate
1453,1453,13,7,5,21,101,realestate
1454,1454,11,11,0,14,123,pharmaceutical
1455,1455,17,24,8,8,192,software
1456,1456,12,20,2,8,95,education
1457,1457,15,1,0,11,219,financial
1458,1458,11,20,4,21,133,retail
1459,1459,11,22,7,16,95,financial
1460,1460,4,9,4,24,165,financial
1461,1461,2,11,1,27,207,retail
1462,1462,17,6,7,19,187,software
1463,1463,18,7,8,5,58,pharmaceutical
1464,1464,19,28,3,21,102,financial
1465,1465,12,23,1,0,78,realestate
1466,1466,16,27,4,0,162,financial
1467,1467,7,7,7,24,157,retail
1468,1468,11,15,4,9,91,retail
1469,1469,18,21,3,3,96,retail
1470,1470,4,9,1,19,157,education
1471,1471,18,27,4,17,71,education
1472,1472,16,10,8,15,161,pharmaceutical
1473,1473,1,7,3,1,210,software
1474,1474,12,21,5,17,84,software
1475,1475,2,6,9,23,213,realestate
1476,1476,7,7,8,27,155,software
1477,1477,1,18,0,1,187,pharmaceutical
1478,1478,16,18,9,4,155,pharmaceutical
1479,1479,10,18,3,4,105,pharmaceutical
1480,1480,19,23,3,21,115,financial
1481,1481,8,14,1,9,205,retail
1482,1482,17,6,1,6,205,education
1483,1483,11,21,0,24,109,retail
1484,1484,3,25,7,26,201,pharmaceutical
1485,1485,19,16,6,26,96,retail
1486,1486,16,19,0,4,159,education
1487,1487,15,10,5,6,214,realestate
1488,1488,1,25,6,23,191,pharmaceutical
1489,1489,9,13,1,3,104,education
1490,1490,15,9,5,17,179,software
1491,1491,17,5,4,29,196,education
1492,1492,6,16,8,5,86,education
1493,1493,2,5,5,19,202,pharmaceutical
1494,1494,11,10,1,12,128,education
1495,1495,12,11,7,23,93,financial
1496,1496,7,17,1,19,129,financial
1497,1497,8,21,5,10,170,retail
1498,1498,3,20,9,8,191,retail
1499,1499,5,11,0,4,127,education
1500,1500,3,22,4,15,180,financial
1501,1501,2,2,9,29,202,financial
1502,1502,14,1,1,11,185,financial
1503,1503,16,13,2,24,156,pharmaceutical
1504,1504,11,11,9,20,139,realestate
1505,1505,5,12,9,9,116,software
1506,1506,9,26,1,14,61,retail
1507,1507,14,14,8,19,189,realestate
1508,1508,14,22,1,1,181,retail
1509,1509,12,28,9,22,98,financial
1510,1510,3,8,3,14,208,realestate
1511,1511,5,3,9,0,130,financial
1512,1512,2,11,1,4,201,realestate
1513,1513,17,21,3,10,198,software
1514,1514,6,7,2,4,40,financial
1515,1515,7,5,5,22,125,education
1516,1516,13,10,3,14,93,retail
1517,1517,2,2,2,17,202,retail
1518,1518,7,27,5,9,162,realestate
1519,1519,5,16,2,11,121,retail
1520,1520,12,4,5,12,107,realestate
1521,1521,13,15,7,17,146,realestate
1522,1522,14,1,2,9,196,financial
1523,1523,5,19,3,23,110,education
1524,1524,15,5,3,1,179,software
1525,1525,14,12,0,28,198,software
1526,1526,12,25,1,12,97,financial
1527,1527,6,25,3,6,78,pharmaceutical
1528,1528,5,1,1,28,126,retail
1529,1529,8,3,1,19,206,financial
1530,1530,14,26,5,18,195,education
1531,1531,11,10,6,2,127,realestate
1532,1532,19,11,5,0,99,pharmaceutical
1533,1533,4,15,0,8,192,retail
1534,1534,7,6,3,21,144,software
1535,1535,7,15,3,21,126,software
1536,1536,1,9,4,2,195,retail
1537,1537,11,25,4,14,116,pharmaceutical
1538,1538,18,25,1,27,98,realestate
1539,1539,3,7,6,1,179,financial
1540,1540,9,7,3,23,78,education
1541,1541,11,5,3,24,132,education
1542,1542,15,24,4,16,220,software
1543,1543,0,8,5,22,121,realestate
1544,1544,16,7,3,9,150,retail
1545,1545,19,11,6,22,87,pharmaceutical
1546,1546,16,12,6,18,157,software
1547,1547,4,1,3,15,188,software
1548,1548,7,17,5,29,136,education
1549,1549,8,18,7,0,156,pharmaceutical
1550,1550,11,12,7,23,105,realestate
1551,1551,16,21,9,7,162,financial
1552,1552,19,7,3,23,110,pharmaceutical
1553,1553,12,2,2,21,94,retail
1554,1554,19,16,9,9,119,retail
1555,1555,16,14,8,21,157,education
1556,1556,17,29,5,0,189,financial
1557,1557,16,15,3,18,162,pharmaceutical
1558,1558,0,18,9,23,122,software
1559,1559,6,14,1,24,81,realestate
1560,1560,13,11,3,6,92,financial
1561,1561,6,10,0,7,49,education
1562,1562,12,18,6,5,78,retail
1563,1563,5,8,7,12,120,pharmaceutical
1564,1564,13,13,9,18,96,retail
1565,1565,8,6,2,11,114,financial
1566,1566,8,25,1,3,145,retail
1567,1567,10,17,0,20,158,financial
1568,1568,2,19,7,25,211,retail
1569,1569,1,12,5,5,208,software
1570,1570,12,9,0,19,102,software
1571,1571,1,13,2,6,209,software
1572,1572,8,17,7,25,207,retail
1573,1573,12,1,9,7,78,pharmaceutical
1574,1574,8,28,2,2,171,pharmaceutical
1575,1575,2,23,2,16,212,realestate
1576,1576,11,17,0,8,126,financial
1577,1577,15,2,4,26,179,retail
1578,1578,12,13,0,16,103,pharmaceutical
1579,1579,19,0,2,26,94,pharmaceutical
1580,1580,6,16,2,19,71,education
1581,1581,15,19,7,0,198,realestate
1582,1582,6,27,6,27,49,financial
1583,1583,11,21,1,20,116,realestate
1584,1584,19,25,3,16,73,financial
1585,1585,6,6,8,21,43,financial
1586,1586,14,7,0,28,187,education
1587,1587,13,25,3,21,88,financial
1588,1588,17,12,0,16,202,education
1589,1589,19,19,9,18,95,realestate
1590,1590,19,29,8,19,80,education
1591,1591,15,3,3,6,196,education
1592,1592,11,23,4,21,114,pharmaceutical
1593,1593,5,18,8,15,138,software
1594,1594,10,10,2,16,92,realestate
1595,1595,10,5,7,9,148,financial
1596,1596,10,11,5,18,92,pharmaceutical
1597,1597,18,8,4,25,61,education
1598,1598,5,9,2,28,113,software
1599,1599,2,13,0,16,199,realestate
1600,1600,3,12,1,1,208,pharmaceutical
1601,1601,11,21,9,27,137,realestate
1602,1602,10,24,1,7,138,education
1603,1603,19,5,7,16,79,education
1604,1604,10,9,1,15,88,realestate
1605,1605,17,23,7,20,193,financial
1606,1606,6,8,4,4,56,realestate
1607,1607,11,7,5,20,95,pharmaceutical
1608,1608,10,24,0,17,110,pharmaceutical
1609,1609,1,7,9,16,233,pharmaceutical
1610,1610,8,14,4,18,160,education
1611,1611,4,26,0,16,181,pharmaceutical
1612,1612,14,14,9,17,196,retail
1613,1613,1,28,7,10,170,pharmaceutical
1614,1614,3,12,1,11,187,education
1615,1615,14,28,4,24,181,retail
1616,1616,9,28,8,3,86,education
1617,1617,10,3,2,8,132,software
1618,1618,12,11,8,2,83,software
1619,1619,2,28,3,28,210,education
1620,1620,10,1,0,28,99,software
1621,1621,2,27,2,9,219,education
1622,1622,17,4,7,16,197,financial
1623,1623,13,8,4,23,122,pharmaceutical
1624,1624,8,2,3,22,176,retail
1625,1625,15,0,9,16,214,financial
1626,1626,7,19,3,27,163,financial
1627,1627,0,10,2,9,122,realestate
1628,1628,2,7,1,13,202,software
1629,1629,14,12,5,14,186,retail
1630,1630,10,6,4,26,146,retail
1631,1631,17,1,4,4,187,software
1632,1632,6,6,0,13,39,pharmaceutical
1633,1633,6,12,2,29,41,retail
1634,1634,9,6,7,20,84,software
1635,1635,11,25,3,22,92,pharmaceutical
1636,1636,0,2,6,13,119,realestate
1637,1637,13,18,7,20,120,pharmaceutical
1638,1638,16,19,2,16,149,pharmaceutical
1639,1639,19,11,1,22,99,pharmaceutical
1640,1640,13,0,0,17,97,financial
1641,1641,4,4,2,6,148,realestate
1642,1642,19,29,1,5,100,software
1643,1643,15,7,7,25,199,realestate
1644,1644,2,10,8,20,204,retail
1645,1645,8,2,2,8,151,retail
1646,1646,1,15,2,6,201,realestate
1647,1647,1,25,1,11,198,retail
1648,1648,4,17,8,8,192,financial
1649,1649,5,3,6,16,117,software
1650,1650,4,20,5,24,178,software
1651,1651,5,11,2,12,138,realestate
1652,1652,2,1,7,22,216,retail
1653,1653,19,21,9,5,90,realestate
1654,1654,5,0,3,26,106,education
1655,1655,16,24,2,11,148,education
1656,1656,6,28,6,11,62,financial
1657,1657,16,25,4,17,157,software
1658,1658,0,21,2,9,119,realestate
1659,1659,1,3,2,4,182,software
1660,1660,12,26,7,27,101,financial
1661,1661,12,5,3,10,97,financial
1662,1662,7,10,5,19,136,pharmaceutical
1663,1663,14,28,6,0,183,pharmaceutical
1664,1664,17,4,5,10,183,realestate
1665,1665,5,23,6,28,111,financial
1666,1666,16,23,8,1,161,software
1667,1667,11,11,4,16,108,software
1668,1668,1,1,2,8,188,retail
1669,1669,7,10,6,2,164,retail
1670,1670,16,9,6,0,147,software
1671,1671,7,23,1,27,125,retail
1672,1672,16,11,2,11,152,financial
1673,1673,1,18,7,3,225,retail
1674,1674,2,6,2,26,210,realestate
1675,1675,3,9,4,20,216,financial
1676,1676,19,11,1,26,89,pharmaceutical
1677,1677,18,21,4,17,79,realestate
1678,1678,6,18,5,14,50,pharmaceutical
1679,1679,9,18,8,15,98,retail
1680,1680,11,18,2,4,121,realestate
1681,1681,2,2,0,15,203,education
1682,1682,19,26,9,9,94,pharmaceutical
1683,1683,11,27,5,27,98,software
1684,1684,6,7,0,12,77,realestate
1685,1685,17,8,2,11,203,software
1686,1686,5,18,6,14,101,software
1687,1687,17,2,0,1,190,pharmaceutical
1688,1688,11,19,6,25,137,education
1689,1689,1,12,0,8,222,retail
1690,1690,11,21,0,24,93,pharmaceutical
1691,1691,2,19,5,14,217,realestate
1692,1692,13,18,6,26,93,realestate
1693,1693,16,8,5,29,160,software
1694,1694,0,4,6,28,122,retail
1695,1695,17,15,5,11,189,software
1696,1696,19,5,7,6,106,financial
1697,1697,9,2,4,19,75,retail
1698,1698,15,19,9,11,200,financial
1699,1699,16,10,4,9,152,retail
1700,1700,2,3,2,17,206,financial
1701,1701,5,7,4,16,99,realestate
1702,1702,8,21,9,27,137,realestate
1703,1703,18,27,6,1,77,realestate
1704,1704,8,13,6,13,182,realestate
1705,1705,15,26,8,17,203,realestate
1706,1706,3,9,7,17,178,financial
1707,1707,10,16,3,18,127,education
1708,1708,17,2,5,22,184,pharmaceutical
1709,1709,17,16,2,16,184,financial
1710,1710,12,20,9,4,80,financial
1711,1711,9,13,2,3,104,software
1712,1712,0,4,4,8,122,retail
1713,1713,14,9,9,14,185,education
1714,1714,16,4,7,11,152,pharmaceutical
1715,1715,8,20,0,24,164,financial
1716,1716,9,1,7,16,73,education
1717,1717,19,13,2,4,117,software
1718,1718,7,20,2,3,151,education
1719,1719,11,4,3,5,113,software
1720,1720,2,29,1,13,214,education
1721,1721,2,18,5,6,202,financial
1722,1722,7,0,6,20,127,financial
1723,1723,14,6,3,1,199,software
1724,1724,0,10,4,0,123,retail
1725,1725,14,0,7,11,190,realestate
1726,1726,5,5,9,23,92,education
1727,1727,14,0,1,2,196,realestate
1728,1728,8,21,1,0,110,financial
1729,1729,18,26,8,15,71,financial
1730,1730,15,14,9,19,213,financial
1731,1731,18,2,1,29,68,education
1732,1732,7,6,9,20,127,education
1733,1733,6,24,4,23,38,financial
1734,1734,14,0,3,5,189,education
1735,1735,16,22,4,16,155,education
1736,1736,3,27,2,8,197,realestate
1737,1737,11,12,2,10,135,retail
1738,1738,2,5,7,10,208,software
1739,1739,14,15,7,6,194,retail
1740,1740,11,24,4,0,121,software
1741,1741,15,8,7,24,205,realestate
1742,1742,8,12,4,4,125,realestate
1743,1743,5,12,0,27,117,software
1744,1744,3,27,9,8,185,pharmaceutical
1745,1745,4,12,2,9,179,software
1746,1746,16,25,2,15,156,software
1747,1747,16,20,1,21,150,retail
1748,1748,17,19,4,21,183,retail
1749,1749,11,27,3,26,124,pharmaceutical
1750,1750,1,14,1,21,163,pharmaceutical
1751,1751,3,12,4,21,189,retail
1752,1752,3,0,1,7,182,education
1753,1753,14,7,3,12,193,realestate
1754,1754,1,14,0,6,190,software
1755,1755,15,10,4,28,210,financial
1756,1756,6,27,3,10,42,financial
1757,1757,18,17,5,28,61,realestate
1758,1758,2,29,2,25,219,retail
1759,1759,14,6,3,25,185,pharmaceutical
1760,1760,16,15,2,25,152,retail
1761,1761,19,3,3,14,99,retail
1762,1762,7,21,8,4,164,software
1763,1763,8,4,5,21,119,education
1764,1764,7,7,9,27,122,realestate
1765,1765,18,13,9,22,65,realestate
1766,1766,16,2,9,11,147,software
1767,1767,6,8,6,13,64,pharmaceutical
1768,1768,19,13,7,18,104,retail
1769,1769,16,9,0,2,147,pharmaceutical
1770,1770,14,24,1,4,182,software
1771,1771,7,7,6,23,147,software
1772,1772,6,0,4,16,86,education
1773,1773,2,15,3,9,218,retail
1774,1774,6,28,0,10,45,software
1775,1775,17,4,1,1,200,pharmaceutical
1776,1776,6,4,3,12,38,pharmaceutical
1777,1777,17,15,9,12,205,pharmaceutical
1778,1778,5,26,6,7,131,retail
1779,1779,10,9,8,29,98,realestate
1780,1780,7,18,5,10,161,education
1781,1781,8,11,7,14,172,education
1782,1782,9,27,7,29,96,realestate
1783,1783,11,1,0,3,105,software
1784,1784,19,24,3,23,85,retail
1785,1785,13,26,8,28,99,education
1786,1786,16,14,3,9,158,education
1787,1787,7,8,2,21,128,pharmaceutical
1788,1788,11,18,7,1,129,retail
1789,1789,1,12,3,8,186,software
1790,1790,14,14,5,21,191,software
1791,1791,12,15,6,10,92,realestate
1792,1792,0,13,0,19,119,pharmaceutical
1793,1793,16,15,1,14,151,pharmaceutical
1794,1794,0,9,3,7,123,realestate
1795,1795,15,12,8,18,200,software
1796,1796,12,10,8,13,88,education
1797,1797,8,21,7,23,196,software
1798,1798,7,9,3,17,123,education
1799,1799,6,17,2,11,48,retail
1800,1800,7,2,1,27,147,retail
1801,1801,7,0,6,20,138,retail
1802,1802,19,15,9,8,92,software
1803,1803,19,22,2,14,81,pharmaceutical
1804,1804,2,11,3,19,212,education
1805,1805,5,14,0,25,130,education
1806,1806,18,10,4,22,83,realestate
1807,1807,14,26,4,14,185,software
1808,1808,11,0,0,6,100,software
1809,1809,16,12,2,20,147,software
1810,1810,18,23,4,26,51,realestate
1811,1811,19,2,4,20,113,financial
1812,1812,2,17,6,7,211,retail
1813,1813,2,21,6,7,218,financial
1814,1814,12,5,9,19,79,financial
1815,1815,5,5,4,14,92,software
1816,1816,12,3,8,12,101,retail
1817,1817,4,7,3,22,134,software
1818,1818,13,16,8,16,89,education
1819,1819,3,26,4,3,199,pharmaceutical
1820,1820,7,25,4,13,129,financial
1821,1821,9,10,5,24,45,financial
1822,1822,3,17,1,11,213,realestate
1823,1823,9,6,7,19,62,financial
1824,1824,14,11,8,20,184,financial
1825,1825,3,4,6,4,176,education
1826,1826,13,2,9,18,120,software
1827,1827,11,4,4,10,108,retail
1828,1828,3,6,9,23,209,education
1829,1829,14,25,7,11,199,realestate
1830,1830,11,27,7,8,136,education
1831,1831,14,23,1,28,190,education
1832,1832,19,17,1,7,91,pharmaceutical
1833,1833,8,29,0,6,151,realestate
1834,1834,2,19,8,3,201,retail
1835,1835,8,21,7,19,153,financial
1836,1836,18,18,1,19,78,realestate
1837,1837,19,21,5,20,76,pharmaceutical
1838,1838,4,7,0,11,132,education
1839,1839,19,5,0,29,85,pharmaceutical
1840,1840,0,7,7,20,119,realestate
1841,1841,14,29,5,21,185,realestate
1842,1842,16,12,3,13,153,retail
1843,1843,19,2,9,26,114,financial
1844,1844,11,28,5,1,126,retail
1845,1845,1,0,8,13,155,realestate
1846,1846,18,11,6,8,52,realestate
1847,1847,8,12,9,22,128,software
1848,1848,8,19,0,9,193,software
1849,1849,19,6,3,20,105,pharmaceutical
1850,1850,2,24,2,28,210,realestate
1851,1851,7,28,0,29,143,retail
1852,1852,5,23,8,8,123,education
1853,1853,7,17,3,6,165,pharmaceutical
1854,1854,3,18,2,11,170,pharmaceutical
1855,1855,11,0,0,14,124,pharmaceutical
1856,1856,0,27,3,21,123,education
1857,1857,9,8,9,26,77,retail
1858,1858,10,6,2,2,128,education
1859,1859,8,20,9,18,158,software
1860,1860,7,25,4,7,137,retail
1861,1861,19,10,1,9,111,software
1862,1862,12,21,4,18,87,retail
1863,1863,6,18,5,15,57,retail
1864,1864,7,4,6,2,142,software
1865,1865,9,24,5,20,90,software
1866,1866,18,0,7,11,75,software
1867,1867,4,21,8,3,169,pharmaceutical
1868,1868,15,28,8,12,185,education
1869,1869,6,18,7,13,55,software
1870,1870,8,12,8,22,147,retail
1871,1871,4,19,8,14,184,retail
1872,1872,7,17,6,8,136,pharmaceutical
1873,1873,18,20,9,29,62,financial
1874,1874,14,18,4,17,181,financial
1875,1875,6,21,6,11,84,financial
1876,1876,2,21,5,12,215,retail
1877,1877,0,21,9,9,122,realestate
1878,1878,11,28,3,18,105,pharmaceutical
1879,1879,13,22,2,17,136,financial
1880,1880,17,20,3,8,189,software
1881,1881,9,21,0,22,93,pharmaceutical
1882,1882,14,14,9,10,180,pharmaceutical
1883,1883,10,18,1,7,107,education
1884,1884,14,13,7,3,183,pharmaceutical
1885,1885,7,12,2,28,141,pharmaceutical
1886,1886,11,9,2,1,136,retail
1887,1887,16,3,6,20,150,software
1888,1888,5,7,6,3,94,pharmaceutical
1889,1889,8,24,6,22,170,software
1890,1890,8,21,7,11,204,software
1891,1891,18,20,8,29,74,education
1892,1892,2,12,3,27,204,financial
1893,1893,15,0,4,14,203,education
1894,1894,2,11,4,20,204,financial
1895,1895,8,4,1,10,204,software
1896,1896,3,14,9,4,200,education
1897,1897,9,18,1,3,85,financial
1898,1898,15,8,0,3,205,education
1899,1899,17,19,7,27,190,realestate
1900,1900,1,14,4,5,188,realestate
1901,1901,9,24,4,28,94,realestate
1902,1902,6,13,3,13,55,realestate
1903,1903,18,25,5,14,56,retail
1904,1904,7,4,8,11,155,education
1905,1905,5,12,1,3,93,pharmaceutical
1906,1906,1,4,6,23,217,retail
1907,1907,3,27,1,2,204,financial
1908,1908,7,21,4,10,121,education
1909,1909,5,29,9,10,108,retail
1910,1910,7,10,8,16,141,realestate
1911,1911,15,21,2,5,205,realestate
1912,1912,13,8,5,16,131,realestate
1913,1913,15,0,4,21,210,software
1914,1914,14,10,1,5,183,education
1915,1915,5,0,4,6,107,realestate
1916,1916,9,18,4,1,52,pharmaceutical
1917,1917,10,3,3,29,103,education
1918,1918,19,13,4,17,90,software
1919,1919,15,6,6,23,183,software
1920,1920,1,3,8,0,192,financial
1921,1921,12,22,4,1,84,education
1922,1922,2,5,9,14,218,pharmaceutical
1923,1923,8,29,2,28,205,pharmaceutical
1924,1924,9,24,8,3,56,financial
1925,1925,18,20,7,0,55,financial
1926,1926,17,15,3,7,198,realestate
1927,1927,14,21,7,17,182,retail
1928,1928,8,25,8,1,145,software
1929,1929,2,12,5,23,218,software
1930,1930,2,26,4,13,214,realestate
1931,1931,11,5,3,26,132,financial
1932,1932,19,21,8,21,83,pharmaceutical
1933,1933,0,10,7,1,122,retail
1934,1934,13,20,7,8,104,realestate
1935,1935,4,8,2,1,137,software
1936,1936,12,16,3,8,79,realestate
1937,1937,3,3,5,21,207,pharmaceutical
1938,1938,3,14,3,20,205,software
1939,1939,16,16,4,21,156,retail
1940,1940,5,1,2,20,117,pharmaceutical
1941,1941,11,3,8,29,121,pharmaceutical
1942,1942,9,5,3,0,67,financial
1943,1943,10,25,2,14,154,software
1944,1944,11,19,0,24,94,software
1945,1945,12,8,2,11,110,retail
1946,1946,17,20,4,28,194,pharmaceutical
1947,1947,5,11,3,10,133,education
1948,1948,19,21,3,24,81,retail
1949,1949,2,12,0,6,201,realestate
1950,1950,0,11,2,17,122,pharmaceutical
1951,1951,9,20,1,23,82,pharmaceutical
1952,1952,16,17,5,1,153,software
1953,1953,0,6,4,5,121,realestate
1954,1954,9,26,4,29,45,education
1955,1955,16,16,3,6,146,realestate
1956,1956,3,22,1,22,201,pharmaceutical
1957,1957,0,12,0,26,123,education
1958,1958,9,21,1,19,44,realestate
1959,1959,3,25,7,29,183,pharmaceutical
1960,1960,16,29,4,3,151,software
1961,1961,16,8,9,4,160,realestate
1962,1962,11,29,6,11,92,financial
1963,1963,0,27,3,23,122,retail
1964,1964,14,0,8,4,179,financial
1965,1965,7,22,5,1,166,pharmaceutical
1966,1966,7,7,0,17,119,pharmaceutical
1967,1967,10,18,0,25,108,software
1968,1968,10,5,9,7,94,pharmaceutical
1969,1969,11,23,3,5,120,software
1970,1970,11,6,6,21,130,retail
1971,1971,7,4,5,1,133,pharmaceutical
1972,1972,16,4,6,8,155,software
1973,1973,6,0,0,20,70,financial
1974,1974,3,29,6,8,194,software
1975,1975,2,8,3,13,199,education
1976,1976,0,9,0,20,123,education
1977,1977,5,15,1,7,140,retail
1978,1978,8,3,6,8,130,software
1979,1979,3,6,3,19,174,education
1980,1980,0,3,2,20,123,financial
1981,1981,8,4,1,10,161,pharmaceutical
1982,1982,16,13,6,9,159,software
1983,1983,5,28,3,18,116,software
1984,1984,15,21,8,10,194,realestate
1985,1985,5,28,6,8,129,financial
1986,1986,8,7,9,1,122,realestate
1987,1987,8,27,8,3,192,realestate
1988,1988,5,17,0,21,105,retail
1989,1989,9,4,9,29,92,pharmaceutical
1990,1990,1,7,0,14,198,software
1991,1991,12,14,0,16,88,education
1992,1992,9,14,7,4,73,pharmaceutical
1993,1993,4,27,5,9,163,pharmaceutical
1994,1994,8,9,0,14,176,realestate
1995,1995,18,15,3,27,83,pharmaceutical
1996,1996,18,17,0,14,74,realestate
1997,1997,2,29,4,1,205,pharmaceutical
1998,1998,18,29,7,26,95,education
1999,1999,12,28,4,28,93,retail
